[
  {
    "OutputKey": "BootstrapInstanceId",
    "OutputValue": "i-0fcbe23dd5e654b83",
    "Description": "Bootstrap Instance ID."
  },
  {
    "OutputKey": "BootstrapPublicIp",
    "OutputValue": "18.185.49.71",
    "Description": "The bootstrap node public IP address."
  },
  {
    "OutputKey": "BootstrapPrivateIp",
    "OutputValue": "10.0.1.30",
    "Description": "The bootstrap node private IP address."
  }
]
